^C:\USERS\CLEVERNAME\SOURCE\REPOS\C-TEHTAVAT\C-TEHTAVA-3\C-TEHTAVA-3\PCH.CPP
C:\USERS\CLEVERNAME\SOURCE\REPOS\C-TEHTAVAT\C-TEHTAVA-3\C-TEHTAVA-3\DEBUG\C-TEHTAVA-3.PCH
C:\USERS\CLEVERNAME\SOURCE\REPOS\C-TEHTAVAT\C-TEHTAVA-3\C-TEHTAVA-3\DEBUG\VC141.PDB
C:\USERS\CLEVERNAME\SOURCE\REPOS\C-TEHTAVAT\C-TEHTAVA-3\C-TEHTAVA-3\DEBUG\VC141.IDB
C:\USERS\CLEVERNAME\SOURCE\REPOS\C-TEHTAVAT\C-TEHTAVA-3\C-TEHTAVA-3\DEBUG\PCH.OBJ
^C:\USERS\CLEVERNAME\SOURCE\REPOS\C-TEHTAVAT\C-TEHTAVA-3\C-TEHTAVA-3\C-TEHTAVA-3.CPP
C:\USERS\CLEVERNAME\SOURCE\REPOS\C-TEHTAVAT\C-TEHTAVA-3\C-TEHTAVA-3\DEBUG\VC141.PDB
C:\USERS\CLEVERNAME\SOURCE\REPOS\C-TEHTAVAT\C-TEHTAVA-3\C-TEHTAVA-3\DEBUG\VC141.IDB
C:\USERS\CLEVERNAME\SOURCE\REPOS\C-TEHTAVAT\C-TEHTAVA-3\C-TEHTAVA-3\DEBUG\C-TEHTAVA-3.OBJ
