^C:\USERS\CLEVERNAME\SOURCE\REPOS\C-TEHTAVAT\C-TEHTAVA-2\C-TEHTAVA-2\DEBUG\C-TEHTAVA-2.OBJ|C:\USERS\CLEVERNAME\SOURCE\REPOS\C-TEHTAVAT\C-TEHTAVA-2\C-TEHTAVA-2\DEBUG\PCH.OBJ
C:\USERS\CLEVERNAME\SOURCE\REPOS\C-TEHTAVAT\C-TEHTAVA-2\DEBUG\C-TEHTAVA-2.EXE
C:\USERS\CLEVERNAME\SOURCE\REPOS\C-TEHTAVAT\C-TEHTAVA-2\DEBUG\C-TEHTAVA-2.ILK
C:\USERS\CLEVERNAME\SOURCE\REPOS\C-TEHTAVAT\C-TEHTAVA-2\DEBUG\C-TEHTAVA-2.PDB
